{
  "project_info": {
    "project_number": "1024545657524",
    "firebase_url": "https://stax-50b87.firebaseio.com",
    "project_id": "stax-50b87",
    "storage_bucket": "stax-50b87.appspot.com"
  },
  "client": [
    {
      "client_info": {
        "mobilesdk_app_id": "1:1024545657524:android:d2c7851463e3576462bde1",
        "android_client_info": {
          "package_name": "com.hasura.rirev.flutter_hasura"
        }
      },
      "oauth_client": [
        {
          "client_id": "1024545657524-o8im9lbtockl4kkibsi6t925s28j29ec.apps.googleusercontent.com",
          "client_type": 1,
          "android_info": {
            "package_name": "com.hasura.rirev.flutter_hasura",
            "certificate_hash": "a26cb66912864a7632713b5734d58ec8063c2260"
          }
        },
        {
          "client_id": "1024545657524-mad7v0u5n6fptuqlqcgai9vgr8jsv3sg.apps.googleusercontent.com",
          "client_type": 3
        }
      ],
      "api_key": [
        {
          "current_key": "AIzaSyBZWuzwxkJdbuhNKZJ-ClqtAnZnyATdtHA"
        }
      ],
      "services": {
        "appinvite_service": {
          "other_platform_oauth_client": [
            {
              "client_id": "1024545657524-mad7v0u5n6fptuqlqcgai9vgr8jsv3sg.apps.googleusercontent.com",
              "client_type": 3
            }
          ]
        }
      }
    },
    {
      "client_info": {
        "mobilesdk_app_id": "1:1024545657524:android:cd2f02dd676551a362bde1",
        "android_client_info": {
          "package_name": "com.rirev.stax"
        }
      },
      "oauth_client": [
        {
          "client_id": "1024545657524-s4o7m3rjc3v9f35n72pu60nfaem5bpde.apps.googleusercontent.com",
          "client_type": 1,
          "android_info": {
            "package_name": "com.rirev.stax",
            "certificate_hash": "4b2ef1f032df2b00658e202f4f9624d337fcb334"
          }
        },
        {
          "client_id": "1024545657524-92pbqb1hmeq5afdhhkrt59bkmuk7ntoj.apps.googleusercontent.com",
          "client_type": 1,
          "android_info": {
            "package_name": "com.rirev.stax",
            "certificate_hash": "93089c4d4f778750ddf77370013c435e8a5c4ae0"
          }
        },
        {
          "client_id": "1024545657524-mad7v0u5n6fptuqlqcgai9vgr8jsv3sg.apps.googleusercontent.com",
          "client_type": 3
        }
      ],
      "api_key": [
        {
          "current_key": "AIzaSyBZWuzwxkJdbuhNKZJ-ClqtAnZnyATdtHA"
        }
      ],
      "services": {
        "appinvite_service": {
          "other_platform_oauth_client": [
            {
              "client_id": "1024545657524-mad7v0u5n6fptuqlqcgai9vgr8jsv3sg.apps.googleusercontent.com",
              "client_type": 3
            }
          ]
        }
      }
    }
  ],
  "configuration_version": "1"
}